…
下面看看我们这次使用的数据。数据保存的格式是 `.RData` ，需要使用 `load()` 函数读入。

```r
load('carriers_jan.RData')
```

读入以后，保存在其中的一个数据框变量 `carriers_jan` 就复活了。下面我们看看其内容：

```r
carriers_jan
```

```
## # A tibble: 93 x 3

##    mydate     carrier     n

##    <date>     <chr>   <int>

##  1 2013-01-01 AA         94

##  2 2013-01-01 DL        112

##  3 2013-01-01 UA        165

##  4 2013-01-02 AA         94

##  5 2013-01-02 DL        152

##  6 2013-01-02 UA        170

##  7 2013-01-03 AA         95

##  8 2013-01-03 DL        128

##  9 2013-01-03 UA        159

## 10 2013-01-04 AA         95

## # ... with 83 more rows
…
