…
如果你看过我的《如何用R和API免费获取Web数据？》一文，对于 tidyverse 应该并不陌生。它是大神 Hadley 等人共同开发的一系列 R 工具包合集。对我来说，它改变了之前 R 语言“难以学习”、“语法古怪”、“不好使用”等刻板印象。

lubridate 是用来处理时间数据的 R 软件包。如果没有这东西，你每次操作时间数据，都会麻烦许多。

gganimate 顾名思义，后面我们绘制动态图形，需要用到。

下面看看我们这次使用的数据。数据保存的格式是 .RData ，需要使用 load() 函数读入。

load('carriers_jan.RData')

读入以后，保存在其中的一个数据框变量 carriers_jan 就复活了。下面我们看看其内容：

carriers_jan

## # A tibble: 93 x 3

##    mydate     carrier     n

##    <date>     <chr>   <int>

##  1 2013-01-01 AA         94

##  2 2013-01-01 DL        112

##  3 2013-01-01 UA        165

##  4 2013-01-02 AA         94

##  5 2013-01-02 DL        152

##  6 2013-01-02 UA        170

##  7 2013-01-03 AA         95

##  8 2013-01-03 DL        128

##  9 2013-01-03 UA        159

## 10 2013-01-04 AA         95

## # ... with 83 more rows
…
